Project 1: Wrangling, Exploration, Visualization
…
## Rows: 208
## Columns: 7
## $ Country        <chr> "Afghanistan", "Albania", "Algeria", "Angola", "Anguil
## $ Code           <chr> "AFG", "ALB", "DZA", "AGO", "AIA", "ATG", "ARG", "ARM"
## $ CO2Emissions   <dbl> 9900004, 5208319, 156220560, 30566933, 30262, 438763, 
## $ YearlyChange   <dbl> 7.13, 4.45, 0.17, 3.13, 1.52, 1.51, 0.16, 3.06, 1.51, 
## $ Percapita      <dbl> 0.28, 1.80, 3.85, 1.06, 2.10, 4.64, 4.61, 1.57, 2.74, 
## $ Population     <dbl> 35383032, 2886438, 40551392, 28842489, 14429, 94527, 4
## $ LifeExpectancy <dbl> 63.763, 78.194, 76.298, 59.925, 81.441, 76.617, 76.221

emissions %>% distinct(Country)

## # A tibble: 208 x 1
##    Country            
##    <chr>              
##  1 Afghanistan        
##  2 Albania            
##  3 Algeria            
##  4 Angola             
##  5 Anguilla           
##  6 Antigua and Barbuda
##  7 Argentina          
##  8 Armenia            
##  9 Aruba              
## 10 Australia          
## #  with 198 more rows

# glimpse(gdp) --> not included because of size of data frame
gdp %>% distinct(Country)

## # A tibble: 195 x 1
##    Country             
##    <chr>               
##  1 Afghanistan         
##  2 Angola              
##  3 Albania             
##  4 Andorra             
##  5 United Arab Emirates
##  6 Argentina           
##  7 Armenia             
##  8 Antigua and Barbuda 
##  9 Australia           
## 10 Austria             
## #  with 185 more rows

anti_join(emissions, gdp)

## # A tibble: 32 x 7
##    Country   Code  CO2Emissions YearlyChange Percapita Population LifeExpectancy
##    <chr>     <chr>        <dbl>        <dbl>     <dbl>      <dbl>          <dbl>
##  1 Anguilla  AIA          30262         1.52      2.1       14429           81.4
##  2 Aruba     ABW         286871         1.51      2.74     104872           75.9
##  3 Bermuda   BMU         639352         1.51     10.1       63362           82.2
##  4 British  VGB          99762         1.51      3.4       29355           78.6
##  5 Cayman I CYM         406057         1.52      6.49      62569           83.5
##  6 Congo     COG        5212302         1.63      1.05    4980996           63.6
##  7 Cook Isl COK          37354         7.19      2.13      17524           75.6
##  8 Czech Re CZE      111825428         1.39     10.5    10618857           78.9
##  9 Faeroe I FRO           1953         0.6       0.04      48173           80.3
## 10 Falkland FLK          48568         1.51     16.6        2928           81.0
## #  with 22 more rows
…
n
176
149.000000
154.000000
176
175.000000

joined_data %>% group_by(RelativeEmissionsToMean, GDP) %>% summarize(count = n()) %>% 
    arrange(-count)

## # A tibble: 160 x 3
## # Groups:   RelativeEmissionsToMean [2]
##    RelativeEmissionsToMean GDP   count
##    <chr>                   <chr> <int>
##  1 High                    14.5k     2
##  2 High                    41.1k     2
##  3 Low                     11.3k     2
##  4 Low                     11.7k     2
##  5 Low                     12.6k     2
##  6 Low                     14.2k     2
##  7 Low                     1520      2
##  8 Low                     16.7k     2
##  9 Low                     19.7k     2
## 10 Low                     1930      2
## #  with 150 more rows
…
joined_data %>% summarize_all(function(x) sum(is.na(x)))

## # A tibble: 1 x 8
##   Country CO2Emissions YearlyChange Percapita Population LifeExpectancy   GDP
##     <int>        <int>        <int>     <int>      <int>          <int> <int>
## 1       0            0            0         0          0              0     0
## #  with 1 more variable: RelativeEmissionsToMean <int>

joined_data %>% filter(Population >= 41647284) %>% filter(str_detect(RelativeEmissionsToMean, 
    "[a-zA-Z]{4}"))

## # A tibble: 22 x 8
##    Country CO2Emissions YearlyChange Percapita Population LifeExpectancy GDP  
##    <chr>          <dbl>        <dbl>     <dbl>      <dbl>          <dbl> <chr>
##  1 Argent    200708270         0.16      4.61   43508460           76.2 23.6k
##  2 Brazil     462994920        -6.08      2.25  206163053           75.2 14.5k
##  3 China    10432751400        -0.28      7.38 1414049351           76.2 14.3k
##  4 Egypt      219377350         4.72      2.32   94447073           71.5 11k  
##  5 France     331533320         2.11      5.13   64667596           82.3 44.8k
##  6 Germany    775752190         1.28      9.44   82193768           80.9 53.1k
##  7 India     2533638100         4.71      1.91 1324517249           68.9 6190 
##  8 Indone    530035650         6.41      2.03  261556381           71.0 10.9k
##  9 Iran       642560030         2.22      8.08   79563989           76.0 14.5k
## 10 Italy      358139550         0.84      5.9    60663060           83.0 41.7k
## #  with 12 more rows, and 1 more variable: RelativeEmissionsToMean <chr>
…
Findings: There were some interesting findings from the wrangling process. One of the more glaring statistics noticed was that only 30 countries in the world accounted for more than the average carbon dioxide emissions in the world whereas 146 countries in the world contributed to less than the mean. Because of this, it can be surmised that if these 30 countries were to focus on the reduction of carbon emissions, then perhaps a significant change would happen to our atmosphere. Additionally, another finding that should be noted is that the average yearly change from 2015 to 2016 of carbon emissions around the world was 2.572557 tons per year. This also contributes to the fact that our world is being damaged by our own carbon footprints. Despite the minimum yearly change of carbon emissions of a country (-6.380000 tons per year), the average is still greater than 0, which means that other countries yearly changes are significant enough to offset the reduction of this one country.

Visualizing

# your plot 1
joined_data

## # A tibble: 176 x 8
##    Country CO2Emissions YearlyChange Percapita Population LifeExpectancy GDP  
##    <chr>          <dbl>        <dbl>     <dbl>      <dbl>          <dbl> <chr>
##  1 Afghan      9900004         7.13      0.28   35383032           63.8 2060 
##  2 Albania      5208319         4.45      1.8     2886438           78.2 12.8k
##  3 Algeria    156220560         0.17      3.85   40551392           76.3 11.7k
##  4 Angola      30566933         3.13      1.06   28842489           59.9 7310 
##  5 Antigu       438763         1.51      4.64      94527           76.6 19.8k
##  6 Argent    200708270         0.16      4.61   43508460           76.2 23.6k
##  7 Armenia      4597845         3.06      1.57    2936143           74.6 12.1k
##  8 Austra    414988700        -0.98     17.1    24262712           83.0 48.6k
##  9 Austria     73764112         1.54      8.43    8747301           81.3 54.3k
## 10 Azerba     33614235        -0.41      3.45    9736043           72.5 14.1k
## #  with 166 more rows, and 1 more variable: RelativeEmissionsToMean <chr>
…
